// Jest Snapshot v1, https://goo.gl/fbAQLP

exports[`AlbumCard component snapshots matches the snapshot 1`] = `
Array [
  <Card
    className="post-card"
    tag="div"
  >
    <CardBody
      tag="div"
    >
      <div>
        <CardTitle
          tag="h3"
        >
          With Friend in Budapest
        </CardTitle>
        <div />
      </div>
    </CardBody>
  </Card>,
]
`;
